log.txt
xcelium> source /xcelium23.09/tools/xcelium/files/xmsimrc
xcelium> run
Time:      0.00ns | State=IDLE | PSEL=0 PENABLE=0 PWRITE=0 | PADDR=0x00 | PWDATA=0x00000000 | PRDATA=0xxxxxxxxx | PREADY=1 PSLVERR=0
Time:     20.00ns | State=IDLE | PSEL=1 PENABLE=0 PWRITE=1 | PADDR=0x04 | PWDATA=0x12342567 | PRDATA=0xxxxxxxxx | PREADY=1 PSLVERR=0
Time:     30.00ns | State=SETUP | PSEL=1 PENABLE=1 PWRITE=1 | PADDR=0x04 | PWDATA=0x12342567 | PRDATA=0xxxxxxxxx | PREADY=1 PSLVERR=0
Time:     40.00ns | State=ACCESS | PSEL=0 PENABLE=0 PWRITE=0 | PADDR=0x00 | PWDATA=0x00000000 | PRDATA=0xxxxxxxxx | PREADY=1 PSLVERR=0
Time:     50.00ns | State=IDLE | PSEL=1 PENABLE=0 PWRITE=0 | PADDR=0x04 | PWDATA=0x00000000 | PRDATA=0xxxxxxxxx | PREADY=1 PSLVERR=0
Time:     60.00ns | State=SETUP | PSEL=1 PENABLE=1 PWRITE=0 | PADDR=0x04 | PWDATA=0x00000000 | PRDATA=0x12342567 | PREADY=1 PSLVERR=0
Time:     70.00ns | State=ACCESS | PSEL=0 PENABLE=0 PWRITE=0 | PADDR=0x00 | PWDATA=0x00000000 | PRDATA=0x12342567 | PREADY=1 PSLVERR=0
Time:     80.00ns | State=IDLE | PSEL=1 PENABLE=0 PWRITE=1 | PADDR=0x00 | PWDATA=0xaabbcdef | PRDATA=0x12342567 | PREADY=1 PSLVERR=0
Time:     90.00ns | State=SETUP | PSEL=1 PENABLE=1 PWRITE=1 | PADDR=0x00 | PWDATA=0xaabbcdef | PRDATA=0x12342567 | PREADY=1 PSLVERR=0
Time:    100.00ns | State=ACCESS | PSEL=0 PENABLE=0 PWRITE=0 | PADDR=0x00 | PWDATA=0x00000000 | PRDATA=0x12342567 | PREADY=1 PSLVERR=0
Time:    110.00ns | State=IDLE | PSEL=1 PENABLE=0 PWRITE=0 | PADDR=0x00 | PWDATA=0x00000000 | PRDATA=0x12342567 | PREADY=1 PSLVERR=0
Time:    120.00ns | State=SETUP | PSEL=1 PENABLE=1 PWRITE=0 | PADDR=0x00 | PWDATA=0x00000000 | PRDATA=0xaabbcdef | PREADY=1 PSLVERR=0
Time:    130.00ns | State=ACCESS | PSEL=0 PENABLE=0 PWRITE=0 | PADDR=0x00 | PWDATA=0x00000000 | PRDATA=0xaabbcdef | PREADY=1 PSLVERR=0
Time:    140.00ns | State=IDLE | PSEL=1 PENABLE=0 PWRITE=0 | PADDR=0x08 | PWDATA=0x00000000 | PRDATA=0xaabbcdef | PREADY=1 PSLVERR=0
Time:    150.00ns | State=SETUP | PSEL=1 PENABLE=1 PWRITE=0 | PADDR=0x08 | PWDATA=0x00000000 | PRDATA=0x00000000 | PREADY=1 PSLVERR=0
Time:    160.00ns | State=ACCESS | PSEL=0 PENABLE=0 PWRITE=0 | PADDR=0x00 | PWDATA=0x00000000 | PRDATA=0x00000000 | PREADY=1 PSLVERR=0
Time:    170.00ns | State=IDLE | PSEL=0 PENABLE=0 PWRITE=0 | PADDR=0x00 | PWDATA=0x00000000 | PRDATA=0x00000000 | PREADY=1 PSLVERR=0
Simulation complete via $finish(1) at time 180 NS + 0
./testbench.sv:80     $finish;
xcelium> exit